digraph "ui/commanline/TextUiParser.tab.h"
{
  edge [fontname="Helvetica",fontsize="10",labelfontname="Helvetica",labelfontsize="10"];
  node [fontname="Helvetica",fontsize="10",shape=record];
  Node13 [label="ui/commanline/TextUiParser.tab.h",height=0.2,width=0.4,color="black", fillcolor="grey75", style="filled", fontcolor="black"];
  Node13 -> Node14 [dir="back",color="midnightblue",fontsize="10",style="solid"];
  Node14 [label="ui/commanline/TextUiParser.tab.c",height=0.2,width=0.4,color="black", fillcolor="white", style="filled",URL="$_text_ui_parser_8tab_8c_source.html"];
}
