digraph "TextUi::InternParser::syntax_error"
{
  edge [fontname="Helvetica",fontsize="10",labelfontname="Helvetica",labelfontsize="10"];
  node [fontname="Helvetica",fontsize="10",shape=record];
  Node0 [label="TextUi::InternParser\l::syntax_error",height=0.2,width=0.4,color="black", fillcolor="grey75", style="filled", fontcolor="black"];
  Node1 -> Node0 [dir="back",color="midnightblue",fontsize="10",style="solid"];
  Node1 [label="std::runtime_error",height=0.2,width=0.4,color="grey75", fillcolor="white", style="filled"];
  Node2 -> Node0 [dir="back",color="midnightblue",fontsize="10",style="solid"];
  Node2 [label="runtime_error",height=0.2,width=0.4,color="grey75", fillcolor="white", style="filled"];
}
